<?xml version="1.0" encoding="UTF-8"?>
<svg width="150px" height="150px" viewBox="0 0 150 150" version="1.1" xmlns="http://www.w3.org/2000/svg" xmlns:xlink="http://www.w3.org/1999/xlink">
    <!-- Generator: Sketch 56.3 (81716) - https://sketch.com -->
    <title>icon_saas-cloud</title>
    <desc>Created with Sketch.</desc>
    <g id="icon_saas-cloud" stroke="none" stroke-width="1" fill="none" fill-rule="evenodd">
        <path d="M26.0402634,66.6445317 C26.0135257,66.0997227 26,65.5514409 26,65 C26,46.7746033 40.7746033,32 59,32 C69.7248616,32 79.2547769,37.1161732 85.2822727,45.0410463 C89.346453,41.8814904 94.4535037,40 100,40 C113.254834,40 124,50.745166 124,64 C124,64.880013 123.952637,65.7489638 123.86032,66.6044421 C132.146953,69.9229358 138,78.0279418 138,87.5 C138,99.0813841 129.249876,108.619067 118,109.862678 L118,110 L33,110 L33,109.950793 C21.2729523,109.178914 12,99.422364 12,87.5 C12,78.0658659 17.8062717,69.9878593 26.0402634,66.6445317 L26.0402634,66.6445317 Z" id="Path" fill="#DFECF9"></path>
        <g id="gitlab-icon-rgb" transform="translate(51.000000, 53.000000)" fill-rule="nonzero">
            <g id="g48" transform="translate(15.053254, 16.899408)" fill="#E24329">
                <polygon id="path50" points="8.94461538 27.2534911 8.94461538 27.2534911 17.772071 0.0894674556 0.121420118 0.0894674556"></polygon>
            </g>
            <g id="g56" transform="translate(2.698225, 16.899408)" fill="#FC6D26">
                <polygon id="path58" points="21.2960947 27.2534911 12.4657988 0.0894674556 0.110769231 0.0894674556"></polygon>
            </g>
            <g id="g64" transform="translate(0.000000, 16.899408)" fill="#FCA326">
                <path d="M2.79905325,0.0979881657 L2.79905325,0.0979881657 L0.113609467,8.35171598 C-0.131076923,9.1043787 0.135905325,9.92904142 0.775384615,10.3952663 L23.9943195,27.2662722 L2.79905325,0.0979881657 Z" id="path66"></path>
            </g>
            <g id="g72" transform="translate(2.698225, 0.000000)" fill="#E24329">
                <path d="M0.110769231,16.9973964 L12.4814201,16.9973964 L7.15739645,0.637633136 C7.032,0.263147929 6.68108876,0.0106508876 6.28615385,0.0106508876 C5.89121893,0.0106508876 5.54030769,0.263147929 5.41491124,0.637633136 L0.110769231,16.9973964 Z" id="path74"></path>
            </g>
            <g id="g76" transform="translate(24.000000, 16.899408)" fill="#FC6D26">
                <polygon id="path78" points="0 27.2534911 8.82745562 0.0894674556 21.2023669 0.0894674556"></polygon>
            </g>
            <g id="g80" transform="translate(24.000000, 16.899408)" fill="#FCA326">
                <path d="M21.1938462,0.0979881657 L21.1938462,0.0979881657 L23.8792899,8.35171598 C24.1253964,9.1043787 23.8581302,9.92975148 23.2175148,10.3952663 L0,27.2534911 L21.1881657,0.0979881657 L21.1938462,0.0979881657 Z" id="path82"></path>
            </g>
            <g id="g84" transform="translate(32.804734, 0.000000)" fill="#E24329">
                <path d="M12.3947929,16.9973964 L0.0255621302,16.9973964 L5.33964497,0.637633136 C5.46433136,0.262721893 5.81510059,0.00965680473 6.21017751,0.00965680473 C6.60525444,0.00965680473 6.95602367,0.262721893 7.08071006,0.637633136 L12.3947929,16.9973964 Z" id="path86"></path>
            </g>
        </g>
    </g>
</svg>

